-------------------------------------------------------------------------------
Test set: org.apache.nifi.processors.first.ValidatePDFTest
-------------------------------------------------------------------------------
Tests run: 1, Failures: 0, Errors: 0, Skipped: 0, Time elapsed: 0.001 s - in org.apache.nifi.processors.first.ValidatePDFTest
